{
  "ext_name_production": {
    "message": "INSSIST | Assistente Web per Instagram"
  },
  "ext_name_beta": {
    "message": "INSSIST BETA | Assistente Web per Instagram"
  },
  "ext_name_dev": {
    "message": "INSSIST DEV"
  },
  "ext_description": {
    "message": "Post photos, videos, stories, reels to Instagram from Web. Export followers plus scheduling, insights and analytics IG tools"
  }
}
