{
  "ext_name_production": {
    "message": "INSSIST | Instagram مساعد ويب لـ"
  },
  "ext_name_beta": {
    "message": "INSSIST BETA | Instagram مساعد ويب لـ"
  },
  "ext_name_dev": {
    "message": "INSSIST DEV"
  },
  "ext_description": {
    "message": "Post photos, videos, stories, reels to Instagram from Web. Export followers plus scheduling, insights and analytics IG tools"
  }
}
